%YAML 1.1
%TAG !u! tag:unity3d.com,2011:
--- !u!114 &11400000
MonoBehaviour:
  m_ObjectHideFlags: 0
  m_CorrespondingSourceObject: {fileID: 0}
  m_PrefabInstance: {fileID: 0}
  m_PrefabAsset: {fileID: 0}
  m_GameObject: {fileID: 0}
  m_Enabled: 1
  m_EditorHideFlags: 0
  m_Script: {fileID: 11500000, guid: b1a07ae836b17134e8a97f6fcd9507ed, type: 3}
  m_Name: PlayerWhooshes
  m_EditorClassIdentifier: 
  sounds:
  - {fileID: 8300000, guid: 1366000715e1ff448b04c6e157a30edf, type: 3}
  - {fileID: 8300000, guid: b0656c05e597b8a47a666286dd2f5eb7, type: 3}
  - {fileID: 8300000, guid: d19bd429ae2d36b4d9b16992d750077b, type: 3}
  - {fileID: 8300000, guid: 769f0b3436ea57d43a0dce5f0fa19301, type: 3}
